{
    "/backend/hcms.js": "/backend/hcms.js",
    "/backend/hcms-vendor.js": "/backend/hcms-vendor.js",
    "/frontend/exampleFrontend.js": "/frontend/exampleFrontend.js",
    "/frontend/exampleFrontend-vendor.js": "/frontend/exampleFrontend-vendor.js",
    "/frontend/exampleFrontend.css": "/frontend/exampleFrontend.css",
    "/backend/flags.css": "/backend/flags.css",
    "/backend/hcms.css": "/backend/hcms.css",
    "/backend/suneditor/suneditor.min.css": "/backend/suneditor/suneditor.min.css",
    "/backend/suneditor/suneditor-contents.css": "/backend/suneditor/suneditor-contents.css"
}
